<svg xmlns="http://www.w3.org/2000/svg" viewBox="0 0 19.092 19.092">
  <defs>
    <style>
      .cls-1 {
        fill: #ff686e;
      }
    </style>
  </defs>
  <g id="Group_12" data-name="Group 12" transform="translate(-502.454 -659.954)">
    <rect id="Rectangle_26" data-name="Rectangle 26" class="cls-1" width="24" height="3" rx="1.5" transform="translate(502.454 676.925) rotate(-45)"/>
    <rect id="Rectangle_27" data-name="Rectangle 27" class="cls-1" width="24" height="3" rx="1.5" transform="translate(504.575 659.954) rotate(45)"/>
  </g>
</svg>
