<?xml version="1.0" encoding="utf-8"?>
<!-- Generator: Adobe Illustrator 22.0.1, SVG Export Plug-In . SVG Version: 6.00 Build 0)  -->
<svg version="1.1" id="Layer_1" xmlns="http://www.w3.org/2000/svg" xmlns:xlink="http://www.w3.org/1999/xlink" x="0px" y="0px"
	 viewBox="0 0 443 443" style="enable-background:new 0 0 443 443;" xml:space="preserve">
<style type="text/css">
	.st0{fill:#44C14D;}
	.st1{fill:url(#SVGID_1_);}
	.st2{fill:#082100;}
	.st3{fill:none;stroke:#082100;stroke-width:15;stroke-linecap:round;stroke-linejoin:round;}
</style>
<title>Aktiv 1</title>
<g id="Layer_2_1_">
	<g id="_1">
		<path class="st0" d="M441,221.5C441,342.7,342.7,441,221.5,441c-53.6,0.1-105.4-19.5-145.5-55.1c-1.6-1.4-3.1-2.8-4.6-4.2
			C27.1,340.2,1.9,282.2,2,221.5C2,100.3,100.3,2,221.5,2c16.5,0,33,1.8,49.1,5.5l2.3,0.5c21.9,5.2,42.8,13.9,62,25.5
			c2.6,1.6,5.3,3.3,7.9,5C404.1,79.2,441,147.9,441,221.5z"/>
	</g>
	<g id="_2">
		
			<linearGradient id="SVGID_1_" gradientUnits="userSpaceOnUse" x1="116.8485" y1="402.4579" x2="322.6324" y2="46.0311" gradientTransform="matrix(1 0 0 -1 0 444)">
			<stop  offset="8.000000e-02" style="stop-color:#9CFFA1"/>
			<stop  offset="0.3" style="stop-color:#8CF492"/>
			<stop  offset="0.71" style="stop-color:#64D76B"/>
			<stop  offset="1" style="stop-color:#44C14D"/>
		</linearGradient>
		<path class="st1" d="M425.5,219.8c0,113.6-92.1,205.8-205.8,205.8C106.2,425.6,14.1,333.6,14,220c0-0.1,0-0.2,0-0.2
			C14,106.1,106.1,14,219.8,14c113.6,0,205.7,92,205.8,205.6C425.5,219.7,425.5,219.7,425.5,219.8z"/>
		<circle class="st2" cx="278.5" cy="170.5" r="32.5"/>
		<circle class="st2" cx="154.5" cy="170.5" r="32.5"/>
		<path class="st3" d="M77.4,247c25.7,78.5,110.2,121.3,188.7,95.6c46.2-15.1,82.2-51.8,96.4-98.3"/>
	</g>
</g>
</svg>
