<svg xmlns="http://www.w3.org/2000/svg" viewBox="0 0 97.296 92.589">
  <defs>
    <style>
      .cls-1, .cls-4 {
        fill: none;
      }

      .cls-1 {
        stroke: #00c5c7;
        stroke-width: 6px;
      }

      .cls-2 {
        fill: #00c5c7;
      }

      .cls-3 {
        stroke: none;
      }
    </style>
  </defs>
  <g id="Group_8" data-name="Group 8" transform="translate(-116.56 -328.406)">
    <g id="Ellipse_80" data-name="Ellipse 80" class="cls-1" transform="translate(138 328.406)">
      <circle class="cls-3" cx="27.297" cy="27.297" r="27.297"/>
      <circle class="cls-4" cx="27.297" cy="27.297" r="24.297"/>
    </g>
    <g id="Group_7" data-name="Group 7" transform="translate(1 -88)">
      <path id="Path_70" data-name="Path 70" class="cls-2" d="M3.56,10.918S3.9-9.3,18.314-13.017s25.431-3.772,34.059-3.848,0,6.573,0,6.573-26.766.784-34,4.4-10.6,16.815-10.6,16.815a3.288,3.288,0,0,1-2.356,1.453A2.081,2.081,0,0,1,3.56,10.918Z" transform="translate(112 496.624)"/>
      <path id="Path_70-2" data-name="Path 70" class="cls-2" d="M56.208,10.918S55.871-9.3,41.453-13.017,16.023-16.788,7.395-16.865s0,6.573,0,6.573,26.766.784,34,4.4S52,10.918,52,10.918a3.288,3.288,0,0,0,2.356,1.453A2.081,2.081,0,0,0,56.208,10.918Z" transform="translate(156.648 496.624)"/>
    </g>
  </g>
</svg>
