<svg xmlns="http://www.w3.org/2000/svg" viewBox="0 0 116.199 84">
  <defs>
    <style>
      .cls-1, .cls-3 {
        fill: none;
      }

      .cls-1 {
        stroke: #00c5c7;
        stroke-width: 3px;
      }

      .cls-2 {
        stroke: none;
      }
    </style>
  </defs>
  <g id="Group_11" data-name="Group 11" transform="translate(-803.5 -336)">
    <line id="Line_4" data-name="Line 4" class="cls-1" x2="116.199" transform="translate(803.5 369.5)"/>
    <line id="Line_5" data-name="Line 5" class="cls-1" x2="116.199" transform="translate(803.5 418.5)"/>
    <g id="Rectangle_36" data-name="Rectangle 36" class="cls-1" transform="translate(816 385)">
      <rect class="cls-2" width="15" height="35" rx="2"/>
      <rect class="cls-3" x="1.5" y="1.5" width="12" height="32" rx="0.5"/>
    </g>
    <g id="Rectangle_37" data-name="Rectangle 37" class="cls-1" transform="translate(835 385)">
      <rect class="cls-2" width="15" height="35" rx="2"/>
      <rect class="cls-3" x="1.5" y="1.5" width="12" height="32" rx="0.5"/>
    </g>
    <g id="Rectangle_38" data-name="Rectangle 38" class="cls-1" transform="translate(854 398)">
      <rect class="cls-2" width="21" height="22" rx="2"/>
      <rect class="cls-3" x="1.5" y="1.5" width="18" height="19" rx="0.5"/>
    </g>
    <g id="Rectangle_39" data-name="Rectangle 39" class="cls-1" transform="translate(879 398)">
      <rect class="cls-2" width="21" height="22" rx="2"/>
      <rect class="cls-3" x="1.5" y="1.5" width="18" height="19" rx="0.5"/>
    </g>
    <g id="Rectangle_40" data-name="Rectangle 40" class="cls-1" transform="translate(873 336)">
      <rect class="cls-2" width="27" height="35" rx="2"/>
      <rect class="cls-3" x="1.5" y="1.5" width="24" height="32" rx="0.5"/>
    </g>
    <g id="Rectangle_43" data-name="Rectangle 43" class="cls-1" transform="translate(816 349)">
      <rect class="cls-2" width="15" height="22" rx="2"/>
      <rect class="cls-3" x="1.5" y="1.5" width="12" height="19" rx="0.5"/>
    </g>
    <g id="Rectangle_44" data-name="Rectangle 44" class="cls-1" transform="translate(835 349)">
      <rect class="cls-2" width="15" height="22" rx="2"/>
      <rect class="cls-3" x="1.5" y="1.5" width="12" height="19" rx="0.5"/>
    </g>
    <g id="Rectangle_45" data-name="Rectangle 45" class="cls-1" transform="translate(854 349)">
      <rect class="cls-2" width="15" height="22" rx="2"/>
      <rect class="cls-3" x="1.5" y="1.5" width="12" height="19" rx="0.5"/>
    </g>
    <g id="Rectangle_46" data-name="Rectangle 46" class="cls-1" transform="translate(857 342)">
      <rect class="cls-2" width="9" height="10" rx="2"/>
      <rect class="cls-3" x="1.5" y="1.5" width="6" height="7" rx="0.5"/>
    </g>
    <g id="Rectangle_47" data-name="Rectangle 47" class="cls-1" transform="translate(838 342)">
      <rect class="cls-2" width="9" height="10" rx="2"/>
      <rect class="cls-3" x="1.5" y="1.5" width="6" height="7" rx="0.5"/>
    </g>
    <g id="Rectangle_48" data-name="Rectangle 48" class="cls-1" transform="translate(819 342)">
      <rect class="cls-2" width="9" height="10" rx="2"/>
      <rect class="cls-3" x="1.5" y="1.5" width="6" height="7" rx="0.5"/>
    </g>
  </g>
</svg>
